<svg width="9" height="17" viewBox="0 0 9 17" fill="none" xmlns="http://www.w3.org/2000/svg">
<path d="M8.57066 8.58642L1.39684 15.7602C1.07743 16.0799 0.559161 16.0799 0.239751 15.7602C-0.0799171 15.4408 -0.0799171 14.9226 0.239751 14.6032L6.83477 8.00788L0.239788 1.4126C-0.0798802 1.09319 -0.0798802 0.574922 0.239788 0.255511C0.399346 0.0956583 0.608857 0.0157328 0.818332 0.0157328C1.02781 0.0157328 1.23732 0.0956583 1.39688 0.255511L8.5707 7.42934C8.89033 7.74875 8.89033 8.26701 8.57066 8.58642Z" fill="#2281EE"/>
</svg>
