<svg width="12" height="16" viewBox="0 0 12 16" fill="none" xmlns="http://www.w3.org/2000/svg">
<path d="M11.5 5H10V6.00001H11V15H1.00001V6.00001H2.00002V5H0.500005C0.223628 5 0 5.22363 0 5.50001V15.5C0 15.7764 0.223628 16 0.500005 16H11.5C11.7764 16 12 15.7764 12 15.5V5.50001C12 5.22363 11.7764 5 11.5 5Z" fill="#2281EE"/>
<path d="M5.97815 1.91406V9H7.02185V1.91406L9.26209 4.06054L10 3.35351L6.5 0L3 3.35351L3.73791 4.06054L5.97815 1.91406Z" fill="#2281EE"/>
</svg>
